c|1|創-世-記|創-世-記
c|2|出-埃-及-記|出-埃-及-記
c|3|創-世-記|創-世-記
c|4|創-世-記|創-世-記
c|5|申-命-記|申-命-記
c|6|約-書-亞-記|約-書-亞-記
c|7|士-師-記|士-師-記
c|8|路-得-記|路-得-記
c|9|撒-母-耳-記-上|撒-母-耳-記-上
c|10|撒-母-耳-記-下|撒-母-耳-記-下
c|11|列-王-紀-上|列-王-紀-上
c|12|列-王-紀-下|列-王-紀-下
c|13|歷-代-志-上|歷-代-志-上
c|14|歷-代-志-下|歷-代-志-下
c|15|以-斯-拉-記|以-斯-拉-記
c|16|尼-希-米-記|尼-希-米-記
c|17|以-斯-帖-記|以-斯-帖-記
c|18|約-伯-記|約-伯-記
c|19|詩-篇|詩-篇
c|20|箴-言|箴-言
c|21|傳-道-書|傳-道-書
c|22|雅-歌|雅-歌
c|23|以-賽-亞-書|以-賽-亞-書
c|24|耶-利-米-書|耶-利-米-書
c|25|耶-利-米-哀-歌|耶-利-米-哀-歌
c|26|以-西-結-書|以-西-結-書
c|27|但-以-理-書|但-以-理-書
c|28|何-西-阿-書|何-西-阿-書
c|29|約-珥-書|約-珥-書
c|30|阿-摩-司-書|阿-摩-司-書
c|31|俄-巴-底-亞-書|俄-巴-底-亞-書
c|32|約-拿-書|約-拿-書
c|33|彌-迦-書|彌-迦-書
c|34|那-鴻-書|那-鴻-書
c|35|哈-巴-谷-書|哈-巴-谷-書
c|36|西-番-雅-書|西-番-雅-書
c|37|哈-該-書|哈-該-書
c|38|撒-迦-利-亞|撒-迦-利-亞
c|39|瑪-拉-基-書|瑪-拉-基-書
c|40|馬-太-福-音|馬-太-福-音
c|41|馬-可-福-音|馬-可-福-音
c|42|路-加-福-音|路-加-福-音
c|43|約-翰-福-音|約-翰-福-音
c|44|使-徒-行-傳|使-徒-行-傳
c|45|羅-馬-書|羅-馬-書
c|46|歌-林-多-前-書|歌-林-多-前-書
c|47|歌-林-多-後-書|歌-林-多-後-書
c|48|加-拉-太-書|加-拉-太-書
c|49|以-弗-所-書|以-弗-所-書
c|50|腓-立-比-書|腓-立-比-書
c|51|歌-羅-西-書|歌-羅-西-書
c|52|帖-撒-羅-尼-迦-前-書|帖-撒-羅-尼-迦-前-書
c|53|帖-撒-羅-尼-迦-後-書|帖-撒-羅-尼-迦-後-書
c|54|提-摩-太-前-書|提-摩-太-前-書
c|55|提-摩-太-後-書|提-摩-太-後-書
c|56|提-多-書|提-多-書
c|57|腓-利-門-書|腓-利-門-書
c|58|希-伯-來-書|希-伯-來-書
c|59|雅-各-書|雅-各-書
c|60|彼-得-前-書|彼-得-前-書
c|61|彼-得-後-書|彼-得-後-書
c|62|約-翰-一-書|約-翰-一-書
c|63|約-翰-二-書|約-翰-二-書
c|64|約-翰-三-書|約-翰-三-書
c|65|猶-大-書|猶-大-書
c|66|启-示-录|启-示-录
